{
	"game_params": {
		"images_folder": "",
		"dialog_tree_folder": "",
		"game_short_name": "MEWA",
		"start_dialog": 1
	},
	"game_state": {
		"peed": false,
		"checked_phone": false,
		"helped_john": false,
		"went_to_work": false,
		"went_to_tylers": false,
		"completed": false,
		"poisoned": false,
		"bomb_found": false,
		"maria_outed": false
	},
	"achievements": {
		"IAmBecomeDeath": {
			"id": 1,
			"name": "I Am Become Death",
			"description": "Your actions resulted in everyone and/or yourself getting killed.",
			"progress": 1,
			"earned": false,
			"image": "/achievements/1.png"
		},
		"ThatWasFast": {
			"id": 2,
			"name": "That Was Fast",
			"description": "You died after making one decision.",
			"progress": 1,
			"earned": false,
			"image": "/achievements/2.png"
		},
		"Hospitality": {
			"id": 3,
			"name": "Hospitality",
			"description": "Accepted Jamie's offer for a drink.",
			"progress": 1,
			"earned": false,
			"image": "/achievements/3.png"
		},
		"Lackey": {
			"id": 4,
			"name": "Lackey",
			"description": "Fed the goddess.",
			"progress": 1,
			"earned": false,
			"image": "/achievements/4.png"
		},
		"IrishKiss": {
			"id": 5,
			"name": "Irish Kiss",
			"description": "Try to hit a woman.",
			"progress": 1,
			"earned": false,
			"image": "/achievements/5.png"
		},
		"Environmentalist": {
			"id": 6,
			"name": "Environmentalist",
			"description": "Physically love planet Earth.",
			"progress": 1,
			"earned": false,
			"image": "/achievements/6.png"
		},
		"Appletreneur": {
			"id": 7,
			"name": "Appletreneur",
			"description": "Start an Apple Stand.",
			"progress": 1,
			"earned": false,
			"image": "/achievements/7.png"
		},
		"WorkingHardforThatNickel": {
			"id": 8,
			"name": "Working Hard for That Nickel",
			"description": "Collect Cans.",
			"progress": 1,
			"earned": false,
			"image": "/achievements/8.png"
		},
		"TheAwardforMostDroppedSoap": {
			"id": 9,
			"name": "The Award for Most Dropped Soap",
			"description": "Get Arrested.",
			"progress": 1,
			"earned": false,
			"image": "/achievements/9.png"
		},
		"Entrepreneurs": {
			"id": 10,
			"name": "Entrepreneurs",
			"description": "Start a business with Russell.",
			"progress": 1,
			"earned": false,
			"image": "/achievements/10.png"
		},
		"ThatsWhatFriendsAreFor": {
			"id": 11,
			"name": "That's What Friends Are For",
			"description": "Help John out with his problem.",
			"progress": 1,
			"earned": false,
			"image": "/achievements/11.png"
		},
		"DrEvans": {
			"id": 12,
			"name": "Dr. Evans",
			"description": "Went to the hospital and saved a life.",
			"progress": 1,
			"earned": false,
			"image": "/achievements/12.png"
		},
		"Evansgate": {
			"id": 13,
			"name": "Evansgate",
			"description": "Meet a President.",
			"progress": 1,
			"earned": false,
			"image": "/achievements/13.png"
		},
		"BoomGoestheDynamite": {
			"id": 14,
			"name": "Boom Goes the Dynamite",
			"description": "Win a game of basketball.",
			"progress": 1,
			"earned": false,
			"image": "/achievements/14.png"
		},
		"BabyDontHurtMeNoMore": {
			"id": 15,
			"name": "Baby Don't Hurt Me, No More",
			"description": "Found out what love was.",
			"progress": 1,
			"earned": false,
			"image": "/achievements/15.png"
		},
		"WannaTrySomeCodes?": {
			"id": 16,
			"name": "Wanna Try Some Codes?",
			"description": "Get the code correct.",
			"progress": 1,
			"earned": false,
			"image": "/achievements/16.png"
		},
		"Scrapper": {
			"id": 17,
			"name": "Scrapper",
			"description": "Get into a fight with a biker.",
			"progress": 1,
			"earned": false,
			"image": "/achievements/17.png"
		},
		"RealMenShedTears": {
			"id": 18,
			"name": "Real Men Shed Tears",
			"description": "You weren't afriad to show your sensitive side.",
			"progress": 1,
			"earned": false,
			"image": "/achievements/18.png"
		},
		"Casanova": {
			"id": 19,
			"name": "Casanova",
			"description": "Find love along the way",
			"progress": 1,
			"earned": false,
			"image": "/achievements/19.png"
		},
		"WorkingClassHero": {
			"id": 20,
			"name": "Working Class Hero",
			"description": "Be a Hero at the Orchard.",
			"progress": 1,
			"earned": false,
			"image": "/achievements/20.png"
		},
		"IamtheGodofHellfireandIBringYou": {
			"id": 21,
			"name": "I am the God of Hellfire, and I Bring You...",
			"description": "Become the Master of Hell",
			"progress": 1,
			"earned": false,
			"image": "/achievements/21.png"
		},
		"OneStepAhead": {
			"id": 22,
			"name": "One Step Ahead",
			"description": "Identified the problem before talking to Jamie.",
			"progress": 1,
			"earned": false,
			"image": "/achievements/22.png"
		},
		"Mattyboy": {
			"id": 23,
			"name": "Mattyboy",
			"description": "Appear in magazines.",
			"progress": 1,
			"earned": false,
			"image": "/achievements/23.png"
		},
		"Whodunnit": {
			"id": 24,
			"name": "Whodunnit?",
			"description": "Discover who the Evil Mastermind is.",
			"progress": 1,
			"earned": false,
			"image": "/achievements/24.png"
		},
		"AFriendofMrCairo": {
			"id": 25,
			"name": "A Friend of Mr. Cairo",
			"description": "Successfully completed the job for Plessey.",
			"progress": 1,
			"earned": false,
			"image": "/achievements/25.png"
		},
		"AChangeofSubjectMatter": {
			"id": 26,
			"name": "A Change of Subject Matter",
			"description": "Go to New York City and flip the bird to the main storyline.",
			"progress": 1,
			"earned": false,
			"image": "/achievements/26.png"
		},
		"ARegularRickRoss": {
			"id": 27,
			"name": "A Regular Rick Ross",
			"description": "Become a drug overlord.",
			"progress": 1,
			"earned": false,
			"image": "/achievements/27.png"
		},
		"StayinAlive": {
			"id": 28,
			"name": "Stayin' Alive",
			"description": "You prevented your family and friends from dying.",
			"progress": 1,
			"earned": false,
			"image": "/achievements/28.png"
		},
		"StartingOver": {
			"id": 29,
			"name": "Starting Over",
			"description": "Started a successful new life with Prudence.",
			"progress": 1,
			"earned": false,
			"image": "/achievements/29.png"
		},
		"Bigamist": {
			"id": 30,
			"name": "Bigamist",
			"description": "Have two lovers at once.",
			"progress": 2,
			"earned": false,
			"image": "/achievements/30.png"
		},
		"XTremeBigamist": {
			"id": 31,
			"name": "X-Treme Bigamist",
			"description": "Have four lovers at once.",
			"progress": 4,
			"earned": false,
			"image": "/achievements/31.png"
		},
		"DidntEvenNeedtoPutPantsOn": {
			"id": 32,
			"name": "Didn't Even Need to Put Pants On",
			"description": "Get a good ending without leaving your house.",
			"progress": 1,
			"earned": false,
			"image": "/achievements/32.png"
		},
		"HappilyEverAfter": {
			"id": 33,
			"name": "Happily Ever After",
			"description": "Got the true ending the handsome author intended on.",
			"progress": 1,
			"earned": false,
			"image": "/achievements/33.png"
		},
		"TheWastedTimeAward": {
			"id": 34,
			"name": "The Wasted Time Award",
			"description": "Explore all the possibilities.",
			"progress": 1,
			"earned": false,
			"image": "/achievements/34.png"
		},
		"ThePathoftheRighteousMatt": {
			"id": 35,
			"name": "The Path of the Righteous Matt",
			"description": "The official path of Matt.",
			"progress": 1,
			"earned": false,
			"image": "/achievements/35.png"
		}
	},
	"inventory": {
	},
	"items":{
		"key": {
			"id": 1,
			"name": "Handcuff Key",
			"description": "This is the key to the handcuffs you woke up in.",
			"quest_item": false,
			"image": "/items/1.png"
		},
		"clothes": {
			"id": 2,
			"name": "Clothes",
			"description": "Mom <3",
			"quest_item": false,
			"image": "/items/2.png"
		},
		"snowCone": {
			"id": 3,
			"name": "Snow Cone",
			"description": "Better than lawnmowers.",
			"quest_item": false,
			"image": "/items/3.png"
		},
		"cellphone": {
			"id": 4,
			"name": "Cellphone",
			"description": "The latest in 'not an iPhone' technology.",
			"quest_item": false,
			"image": "/items/4.png"
		},
		"usd": {
			"id": 5,
			"name": "Money",
			"description": "Good ol' America capitism dollars.",
			"quest_item": false,
			"image": "/items/5.png"
		},
		"carKeys": {
			"id": 6,
			"name": "Car Keys",
			"description": "It gets you from A to B.",
			"quest_item": false,
			"image": "/items/6.png"
		},
		"100Apples": {
			"id": 7,
			"name": "100 Apples of varying cultivars.",
			"description": "How did you even fit these in your pocket?.",
			"quest_item": false,
			"image": "/items/7.png"
		},
		"lawnmower": {
			"id": 8,
			"name": "John's lawnmower.",
			"description": "This thing is gross.",
			"quest_item": false,
			"image": "/items/8.png"
		},
		"marvin": {
			"id": 9,
			"name": "The word MARVIN.",
			"description": "You don't actually have this. You just know it was written on John's lawnmower. This item is symbolic of knowledge.",
			"quest_item": false,
			"image": "/items/9.png"
		},
		"appleTray": {
			"id": 10,
			"name": "Apple tray.",
			"description": "A tray holding a variaty of apple samples.",
			"quest_item": false,
			"image": "/items/10.png"
		},
		"gingersApple": {
			"id": 11,
			"name": "An apple with Ginger's info.",
			"description": "She carved her info into it with her nail. That's kinda gross...",
			"quest_item": false,
			"image": "/items/11.png"
		},
		"prudencesNumber": {
			"id": 12,
			"name": "Prudence's Phone Number.",
			"description": "OMG A girl gave me her number!!",
			"quest_item": false,
			"image": "/items/12.png"
		},
		"pillows": {
			"id": 13,
			"name": "The pillows in your shirt.",
			"description": "You are currently using these to pretend to be ladies.",
			"quest_item": false,
			"image": "/items/13.png"
		},
		"gingerAle": {
			"id": 14,
			"name": "Ginger Ale courtosy of Jamie..",
			"description": "It tastes oddly sweet.",
			"quest_item": false,
			"image": "/items/14.png"
		}
	}
}