{
	"id": 102,
	"title": "Wrong code",
	"text": "The code is wrong. The text box disappears and after 10 minutes, the bomb detonates.<br><br>You Died<br><br>Try Again?",
	"options": [
		{
			"id": 1,
			"text": "Start",
			"dialog_link": 1,
			"functions": [],
			"conditions": {},
			"enabled": true
		}
	],
	"image": "assets/illustrations/102.jpg"
}