{
	"id": 20,
	"title": "Continue to Jamie's House",
	"text": "You arrive at Jamie’s house. Party decorations that read “Happy Birthday Adam” are hung around the house. You ring the doorbell.<br><br>Jamie answers.<br><br>Jamie: Thank goodness you’re here.<br><br>Matt: Hey Jamie, now, what’s up? Why do you want to talk?<br><br>Jamie: Here, I wouldn’t want you to stand out in the cold. Come in, have a seat.<br><br>You sit down on the sofa. The cushions are disheveled.<br><br>Jamie: Would you like a beverage?",
	"options": [
		{
			"id": 1,
			"text": "Sure, I'm Parched!",
			"dialog_link": 64,
			"functions": [
				{
					"command": "inventoryAdd",
					"arguments": [
						"gingerAle"
					]
				},
				{
					"command": "updateAchievement",
					"arguments": [
						3,
						1
					]
				},
				{
					"command": "setState",
					"arguments": [
						"poisoned",
						true
					]
				}
			],
			"conditions": {},
			"enabled": true
		},
		{
			"id": 2,
			"text": "No Thanks, Let's Just Get to the Talking",
			"dialog_link": 68,
			"functions": [],
			"conditions": {},
			"enabled": true
		}

	],
	"image": "assets/illustrations/19.jpg"
}