{
	"id": 31,
	"title": "Golden Delicious",
	"text": "Matt: Try a Golden Delicious, because I want to eat your hair.<br><br>She slowly backs away and runs out the door. You probably could’ve come up with something better.",
	"options": [
		{
			"id": 1,
			"text": "Continue Working",
			"dialog_link": 36,
			"functions": [
				{
					"command": "inventoryRemove",
					"arguments": [
						"appleTray"
					]
				}
			],
			"conditions": {},
			"enabled": true
		}
	],
	"image": "assets/illustrations/31.jpg"
}