{
	"id": 58,
	"title": "Bring Tyler to a Hospital",
	"text": "You load Tyler in the back and speed off to the hospital. You arrive and explain your problem. The hospital is evacuated and a team of bomb-diffusing experts will try to save him.<br><br>What do you do now?",
	"options": [
		{
			"id": 1,
			"text": "Go To Jamie's House",
			"dialog_link": 16,
			"functions": [],
			"conditions": {},
			"enabled": true
		},
		{
			"id": 2,
			"text": "Go to the Orchard",
			"dialog_link": 27,
			"functions": [],
			"conditions": {
				"checked_phone": true
			},
			"enabled": true
		},
		{
			"id": 3,
			"text": "Go To Theresa's House",
			"dialog_link": 26,
			"functions": [],
			"conditions": {
				"checked_phone": true
			},
			"enabled": true
		}
	],
	"image": "assets/illustrations/58.jpg"
}
