{
	"id": 59,
	"title": "Mess With John",
	"text": "You go to John’s house, pillows bobbing up and down, but he is not home. You see him frantically running around the neighborhood screaming about lemons. You call out for him, but he is too focused to hear you.<br><br>Who do you mess with now?",
	"options": [
		{
			"id": 1,
			"text": "Mess With Russell",
			"dialog_link": 60,
			"functions": [],
			"conditions": {},
			"enabled": true
		},
		{
			"id": 2,
			"text": "Mess With Theresa",
			"dialog_link": 61,
			"functions": [
				{
					"command": "updateAchievement",
					"arguments": [
						1,
						1
					]
				}
			],
			"conditions": {},
			"enabled": true
		}
	],
	"image": "assets/illustrations/59.jpg"
}
