{
	"id": 63,
	"title": "Strip",
	"text": "Knowing Russell’s up-tight nature and social awkwardness, you decide to mess with him by stripping.<br><br>However, you forget that Russell’s a photographer as well, and he takes pictures.<br><br>The pictures are sold to smutty magazines, who contact you two to be models.<br><br>You two become the most successful adult models in history and live lavishly and famously.<br><br>The End<br><br>Play Again?",
	"options": [
		{
			"id": 1,
			"text": "Start",
			"dialog_link": 1,
			"functions": [],
			"conditions": {},
			"enabled": true
		}
	],
	"image": "assets/illustrations/63.jpg"
}
