{
	"id": 7,
	"title": "Reminisce About Apples Again",
	"text": "You again ponder about the wonders of apples and go over the apple-growing methods you memorized. Suddenly, it hits you. You come up with a mathematical theory for growing the tastiest possible apples. You then remember the situation at hand, but what should you do next?",
	"options": [
		{
			"id": 1,
			"text": "Take Key",
			"dialog_link": 6,
			"functions": [
				{
					"command": "inventoryAdd",
					"arguments": [
						"key"
					]
				}
			],
			"conditions": {},
			"enabled": true
		},
		{
			"id": 2,
			"text": "Use Apple Seeds to Recreate the Formula",
			"dialog_link": 8,
			"functions": [
				{
					"command": "updateAchievement",
					"arguments": [
						28,
						1
					]
				},
				{
					"command": "updateAchievement",
					"arguments": [
						32,
						1
					]
				}
			],
			"conditions": {},
			"enabled": true
		}
	],
	"image": "assets/illustrations/7.jpg"
}