{
	"id": 80,
	"title": "Maria Has a Sunny Personality!",
	"text": "Jamie: Well duh.",
	"options": [
		{
			"id": 1,
			"text": "I Know Nothing",
			"dialog_link": 69,
			"functions": [],
			"conditions": {},
			"enabled": true
		}
	],
	"image": "assets/illustrations/80.jpg"
}