{
	"id": 81,
	"title": "Maria's Planting Explosives in People's Tummys!",
	"text": "Jamie: …what?<br><br>Matt: Yeah! Someone told me that she was planting bombs in people and blowing them up! She’s going to destroy the town!<br><br>Jamie: … Hold on…<br><br>Jamie leaves the room and dials a phone. She whispers to the person on the phone, but you are unable to make it out. She calmly hangs up and sits back on the couch.<br><br>Matt: Who did you call?<br><br>Jamie pulls out a gun and points it at you.<br><br>Jamie: A friend…<br><br>She gives you a devilish smile and aims to kill. You sit there, awestricken that the idea someone you had once considered a friend is now planning to kill you.<br><br>What do you do?",
	"options": [
		{
			"id": 1,
			"text": "Run",
			"dialog_link": 82,
			"functions": [
				{
					"command": "updateAchievement",
					"arguments": [
						1,
						1
					]
				}
			],
			"conditions": {},
			"enabled": true
		},
		{
			"id": 2,
			"text": "Fight",
			"dialog_link": 83,
			"functions": [
				{
					"command": "updateAchievement",
					"arguments": [
						1,
						1
					]
				}
			],
			"conditions": {},
			"enabled": true
		},
		{
			"id": 3,
			"text": "Talk",
			"dialog_link": 84,
			"functions": [],
			"conditions": {},
			"enabled": true
		}
	],
	"image": "assets/illustrations/81.jpg"
}