{
	"id": 86,
	"title": "Who Wears Short Shorts?",
	"text": "Jamie: Not you.<br><br>She shoots the buckle off your belt and your pants plummet to the ground.<br><br>Maria: You look like a fool with your pants on the ground.<br><br>You pull up your pants and button the button. They should stay on now.",
	"options": [
		{
			"id": 1,
			"text": "Why Am I Involved With This?",
			"dialog_link": 85,
			"functions": [],
			"conditions": {},
			"enabled": true
		}
	],
	"image": "assets/illustrations/86.jpg"
}