{
	"id": 91,
	"title": "Reveal 2: Off the Rails",
	"text": "You remove the masks and find out who they really are…<br><br>Matt: Holy crap, you guys are really… Succubae!!!!!!!!!<br><br>Succubus 1: That’s right; we descend from Hell and wish to destroy your Earth world!<br><br>Matt: Where are the real Maria and Jamie?<br><br>Succubus 1: We ate their souls!<br><br>Succubus 2: Yes, and now we shall destroy you!<br><br>You have to act fast! What do you do?",
	"options": [
		{
			"id": 1,
			"text": "Fight Succubae",
			"dialog_link": 93,
			"functions": [],
			"conditions": {},
			"enabled": true
		},
		{
			"id": 2,
			"text": "Try to Score with the Succubae",
			"dialog_link": 94,
			"functions": [
				{
					"command": "updateAchievement",
					"arguments": [
						1,
						1
					]
				},
				{
					"command": "updateAchievement",
					"arguments": [
						21,
						1
					]
				},
				{
					"command": "updateAchievement",
					"arguments": [
						19,
						1
					]
				}
			],
			"conditions": {},
			"enabled": true
		}
	],
	"image": "assets/illustrations/91.jpg"
}